{
  "type": "service_account",
  "project_id": "pygmerchant-761a3",
  "private_key_id": "5b434de3b0de29a6a36b8ec3a3cace2882164595",
  "private_key": "-----BEGIN PRIVATE KEY-----\nMIIEvQIBADANBgkqhkiG9w0BAQEFAASCBKcwggSjAgEAAoIBAQDKIFKZxVmwc9sN\ntmeNhusBBlJQPKnOawAjn025haz3qSkAc+yV/h/nByUOxwWXJBmdurvopjZHOnxE\nKihX8/Z/jt3e4wG2qlS72d+TXyaPr0t3JxkW1aqq+0djpa4r1PdBAtr+KJG/YW/+\nXeIVpGu6rzhwoVMiMikdaSeRRyFrnghAZA7tAwQIa2OPdsF9qy6l6Q12rK0frwYk\nF+cOi4MXNpaFdHEIYzVA30OTxh2ui0USvpRcozUNb2obfR6REVtyRJ7pf+JQggpo\nMJU5KS1DzsjYzxsgVNTBytz+oFuuu2q+yx3F5cy6jwQ6mxySbN960hHD3x1NjOwZ\nGJqIHy2XAgMBAAECggEASOv4YPnOLdbehMf1/B1c03XQZJo+OPZpinCCvhf4GzGw\nVTV9eW/BWrw9JmOvJKQlib5A5OJyWqhDBOSgwXqGx+ZnLW6Aw8IX593mx2hgpR38\n//PfHVngxOb7DnxLpgyjV5UMJP3F92HT4dVFJ8G2DBgDKL9LGt817iJt3//lkslA\nj7g8z2ZYwK4ylz67/soYBLMLsreK41a5vWEno7PZT1+00o4iHKDULOwIeUdfRsiL\nxthLM3o7GFH57OQSVfO0iD60XRppqj57p24+sPa/D4Q+FPCVhKSazdN/Wj1DXtFX\nyqcI14EIUzcUANOUW5JOM/O3MJ9Q7ptvKfnLmqUe4QKBgQDxCMDW6ccsL5ZQ2+Ah\nyluSXqmBBduMVNpW+wGppMmyGASnDcR+e65QmaHeDP150i7Uf5e7Yi+zAVJTtz0n\nZ861DMlUIw5hTB4MddEUZ7auzm5PwWAUePgaxqZwNFxvvCVMaEKGjek+cPWKQKDC\nkfLiyXEzNOfUgxi2rGH42BNhVQKBgQDWrSBgVlpf2RqBYkhqdQKIf8bXhQHVXCib\nBUhAOAs23kTnFZqAktMdPUKfMzLqIMqXIGHE4qi0/pbvVs1r23SD4S49F3HSCpUK\nZik2xKfOpHYcOVvxgXGbgie0JQjUpX0Ovy5XDOrB89qfLhVR/7YfysexxfD82WRA\ndAWyZnTDOwKBgBN1nHP9XboggWc3ySmRN8FiaRbkjSwQMaxyCVlT14DMVZvTDbkU\nbSdOr/XIYLJ0GJnJT0uuiqFOCwJ9Oa+zvsl5JcvoJKIQTiC9ZkracLI+MkO4HfSp\nK4al4QwP/iJ7MxuvEyffzyPeZMRroU70D4LltoDm1YyfpOAinKpFb5MdAoGAKxMl\n8e6hx6WqWde8rA+6aGUrIsd/bK5HP4O50ZjtNx82OB/vlmjfj3hhS8xcJPpbbCOF\nOpo4O8jxxChoo4GvSV7/hiaUIg8ZhLKnBmRDP4VkZZlkx3qvrwJYsR7VPMXP6AuY\nYsMmv7AMZ/A5OvDSPGLV2ufayQFdykj9c6R3PU0CgYEAg+Atu7KSab4HT/McwtLj\ndNJKAg7bErhAmE5djTcVaIPTQ+2f9N16Z23GajEMivQyD+n0RBePnDgi+vFPE6HH\noPxs1cR0//E/IAmM3lr/GKq7DrEmgsrtqZQMKX6MHQlsh4MykNOXLU/SbpQwjlr6\nNpUDiBh8RlZs8/sCm8O/84I=\n-----END PRIVATE KEY-----\n",
  "client_email": "firebase-adminsdk-b4r7l@pygmerchant-761a3.iam.gserviceaccount.com",
  "client_id": "100273498043404235728",
  "auth_uri": "https://accounts.google.com/o/oauth2/auth",
  "token_uri": "https://oauth2.googleapis.com/token",
  "auth_provider_x509_cert_url": "https://www.googleapis.com/oauth2/v1/certs",
  "client_x509_cert_url": "https://www.googleapis.com/robot/v1/metadata/x509/firebase-adminsdk-b4r7l%40pygmerchant-761a3.iam.gserviceaccount.com"
}
